<svg width="100" height="100" viewBox="0 0 100 100" fill="none" xmlns="http://www.w3.org/2000/svg">
<path d="M79.0504 69.86L81.1404 73.49C82.5304 75.92 83.9204 78.35 85.3404 80.76C85.5848 81.0656 85.7278 81.44 85.7493 81.8308C85.7708 82.2215 85.6698 82.6093 85.4604 82.94C85.2344 83.2613 84.9119 83.5024 84.5398 83.6282C84.1676 83.7541 83.765 83.7582 83.3904 83.64L77.4604 82.57C76.7604 84.51 76.0904 86.42 75.3604 88.3C75.1971 88.7562 74.9011 89.1532 74.5104 89.44C74.3013 89.5739 74.0652 89.6599 73.819 89.6917C73.5727 89.7234 73.3225 89.7002 73.0863 89.6237C72.8501 89.5472 72.6338 89.4193 72.453 89.2492C72.2721 89.0791 72.1312 88.871 72.0404 88.64L67.0404 80.02C66.8904 79.75 66.7304 79.49 66.5304 79.17C64.8232 79.8728 62.9075 79.8728 61.2004 79.17L60.0004 81.28C58.6004 83.7 57.2004 86.12 55.8104 88.56C55.669 88.9193 55.4151 89.2233 55.0867 89.4265C54.7583 89.6298 54.373 89.7214 53.9883 89.6876C53.6036 89.6539 53.2401 89.4966 52.9521 89.2393C52.6641 88.982 52.4671 88.6385 52.3904 88.26C51.7304 86.38 51.0404 84.51 50.3904 82.58L44.9304 83.58L44.0904 83.72C43.7586 83.7977 43.4108 83.7701 43.0954 83.6411C42.78 83.512 42.5126 83.288 42.3304 83C42.1311 82.7402 42.0158 82.426 41.9997 82.099C41.9836 81.7721 42.0676 81.448 42.2404 81.17C42.8504 80 43.4804 79 44.1004 77.89L48.7404 69.89C48.173 69.6723 47.6406 69.3725 47.1604 69C46.1604 68 44.9204 68.13 43.6804 68.13C34.7537 68.13 25.8271 68.13 16.9004 68.13C16.6704 68.13 16.4304 68.13 16.2004 68.13C15.2004 68.13 14.7404 67.65 14.7604 66.62C14.7806 60.1202 17.1252 53.842 21.3704 48.92C24.9229 44.6735 29.6728 41.5963 35.0004 40.09L35.5604 39.91C30.0004 36.67 26.9404 32 27.0004 25.53C27.012 23.3793 27.4859 21.2563 28.39 19.3049C29.2941 17.3535 30.6072 15.6193 32.2404 14.22C33.9053 12.7519 35.8634 11.6547 37.9848 11.0014C40.1062 10.348 42.3423 10.1534 44.5446 10.4305C46.747 10.7076 48.8652 11.45 50.7587 12.6084C52.6521 13.7668 54.2775 15.3148 55.5268 17.1495C56.7762 18.9843 57.621 21.0638 58.0051 23.25C58.3892 25.4363 58.3038 27.6792 57.7547 29.8299C57.2055 31.9806 56.2051 33.9899 54.8199 35.7244C53.4347 37.4588 51.6964 38.8788 49.7204 39.89C51.0104 40.36 52.2804 40.89 53.5604 41.28C53.7404 41.35 53.9604 41.28 54.1704 41.28C55.1444 41.2465 56.1196 41.2732 57.0904 41.36C57.4364 41.4532 57.8022 41.4421 58.142 41.3283C58.4818 41.2144 58.7804 41.0028 59.0004 40.72C59.6077 40.0019 60.3644 39.4248 61.2175 39.029C62.0707 38.6332 62.9999 38.4282 63.9404 38.4282C64.8809 38.4282 65.8101 38.6332 66.6633 39.029C67.5164 39.4248 68.273 40.0019 68.8804 40.72C69.0878 41.0082 69.3837 41.2209 69.723 41.3256C70.0624 41.4303 70.4266 41.4213 70.7604 41.3C71.6583 41.0902 72.5907 41.0756 73.4947 41.2573C74.3987 41.439 75.2531 41.8126 76.0002 42.3531C76.7473 42.8935 77.3696 43.588 77.8251 44.3897C78.2806 45.1914 78.5586 46.0815 78.6404 47C78.6405 47.3793 78.7605 47.7489 78.9832 48.056C79.2059 48.3631 79.5199 48.5919 79.8804 48.71C80.7326 49.0615 81.4983 49.5939 82.1247 50.2703C82.7511 50.9466 83.2232 51.7509 83.5084 52.6275C83.7936 53.5042 83.8852 54.4323 83.7768 55.3477C83.6684 56.2632 83.3625 57.1442 82.8804 57.93C82.6695 58.2544 82.5573 58.633 82.5573 59.02C82.5573 59.4069 82.6695 59.7855 82.8804 60.11C83.3627 60.8973 83.6686 61.7797 83.7772 62.6966C83.8857 63.6135 83.7943 64.543 83.5092 65.4211C83.2241 66.2993 82.752 67.1052 82.1256 67.7834C81.4991 68.4617 80.7332 68.9961 79.8804 69.35C79.6104 69.51 79.3604 69.69 79.0504 69.86ZM51.0004 43C47.1996 41.6148 43.1182 41.1778 39.1103 41.7267C35.1024 42.2756 31.2888 43.7939 28.0004 46.15C24.8447 48.3568 22.2349 51.2554 20.3701 54.6245C18.5054 57.9936 17.4349 61.7441 17.2404 65.59H44.2404C43.8304 62.53 43.8604 62.54 45.0404 59.8C45.1442 59.5449 45.1943 59.2711 45.1874 58.9958C45.1805 58.7205 45.1169 58.4495 45.0004 58.2C42.7004 54.84 44.5504 49.82 48.0804 48.68C48.3863 48.5892 48.6556 48.4039 48.8496 48.1505C49.0436 47.8972 49.1524 47.589 49.1604 47.27C49.2158 45.6661 49.8726 44.1417 51.0004 43ZM29.4604 25.86C29.4526 28.4542 30.2134 30.9927 31.647 33.1549C33.0805 35.3172 35.1225 37.0063 37.5152 38.0091C39.9078 39.0118 42.5439 39.2833 45.0907 38.7893C47.6376 38.2953 49.981 37.0578 51.8251 35.2331C53.6693 33.4085 54.9316 31.0784 55.4527 28.537C55.9738 25.9956 55.7304 23.3567 54.7531 20.9535C53.7759 18.5503 52.1086 16.4905 49.9617 15.034C47.8148 13.5776 45.2846 12.7897 42.6904 12.77C39.2025 12.7593 35.8524 14.1305 33.373 16.5837C30.8936 19.0368 29.4868 22.3722 29.4604 25.86ZM55.6904 43.6C54.6897 43.5792 53.7176 43.9343 52.966 44.5952C52.2143 45.2561 51.7378 46.1748 51.6304 47.17C51.606 48.02 51.3284 48.8434 50.8332 49.5347C50.3379 50.2259 49.6474 50.7536 48.8504 51.05C48.3172 51.2596 47.837 51.5847 47.4444 52.0019C47.0517 52.4192 46.7564 52.9182 46.5795 53.4631C46.4026 54.0081 46.3487 54.5854 46.4214 55.1537C46.4942 55.722 46.6919 56.2672 47.0004 56.75C47.4579 57.4354 47.702 58.2409 47.702 59.065C47.702 59.889 47.4579 60.6946 47.0004 61.38C46.695 61.8632 46.4992 62.4076 46.4269 62.9747C46.3547 63.5418 46.4077 64.1178 46.5821 64.6623C46.7566 65.2067 47.0484 65.7062 47.4368 66.1256C47.8252 66.5451 48.301 66.8743 48.8304 67.09C49.614 67.3787 50.295 67.8924 50.7878 68.5666C51.2805 69.2409 51.5632 70.0456 51.6004 70.88C51.6393 71.4505 51.8036 72.0055 52.0815 72.5053C52.3593 73.0052 52.744 73.4376 53.2081 73.7718C53.6722 74.106 54.2042 74.3338 54.7664 74.4389C55.3285 74.544 55.9069 74.5239 56.4604 74.38C57.2412 74.1637 58.068 74.1789 58.8403 74.4239C59.6126 74.6689 60.2971 75.1331 60.8104 75.76C61.1747 76.2182 61.6377 76.5883 62.1649 76.8427C62.6922 77.0971 63.27 77.2292 63.8554 77.2292C64.4408 77.2292 65.0186 77.0971 65.5459 76.8427C66.0731 76.5883 66.5361 76.2182 66.9004 75.76C67.4085 75.1291 68.0905 74.6611 68.8619 74.4141C69.6334 74.167 70.4603 74.1517 71.2404 74.37C71.7931 74.5173 72.3715 74.5406 72.9343 74.4382C73.497 74.3358 74.0302 74.1103 74.4956 73.7777C74.9609 73.4452 75.347 73.0138 75.6262 72.5146C75.9054 72.0154 76.0707 71.4606 76.1104 70.89C76.157 70.0366 76.4568 69.2166 76.9715 68.5344C77.4863 67.8522 78.1926 67.3389 79.0004 67.06C79.5154 66.8434 79.9778 66.5184 80.3559 66.1071C80.7341 65.6958 81.0193 65.2078 81.192 64.6765C81.3647 64.1451 81.4209 63.5828 81.3567 63.0277C81.2926 62.4727 81.1097 61.938 80.8204 61.46C80.3341 60.7485 80.074 59.9067 80.074 59.045C80.074 58.1832 80.3341 57.3415 80.8204 56.63C81.1024 56.155 81.2795 55.6251 81.3397 55.076C81.3999 54.5268 81.3418 53.9712 81.1694 53.4464C80.997 52.9215 80.7142 52.4397 80.3401 52.0333C79.966 51.6268 79.5092 51.3052 79.0004 51.09C78.1717 50.792 77.4524 50.2507 76.9367 49.5369C76.421 48.8232 76.133 47.9702 76.1104 47.09C76.0689 46.5758 75.9225 46.0755 75.6804 45.62C75.267 44.8624 74.6129 44.2642 73.8214 43.9201C73.03 43.576 72.1464 43.5055 71.3104 43.72C70.5498 43.9716 69.7296 43.9796 68.9642 43.743C68.1988 43.5064 67.5263 43.0369 67.0404 42.4C66.6517 41.9425 66.1683 41.5751 65.6235 41.3231C65.0787 41.0711 64.4856 40.9406 63.8854 40.9406C63.2851 40.9406 62.6921 41.0711 62.1473 41.3231C61.6025 41.5751 61.119 41.9425 60.7304 42.4C60.2797 43.0052 59.6565 43.4599 58.9426 43.7044C58.2287 43.949 57.4575 43.9718 56.7304 43.77C56.3004 43.7 55.8904 43.64 55.6904 43.6ZM45.2104 81L50.6004 80C50.7836 79.9291 50.9802 79.8993 51.1762 79.9129C51.3722 79.9264 51.5629 79.9829 51.7346 80.0783C51.9064 80.1738 52.055 80.3058 52.1701 80.465C52.2852 80.6243 52.3638 80.8069 52.4004 81C52.9304 82.43 53.4004 83.87 53.9604 85.31L54.2804 86.18L58.7604 78.43C59.2304 77.61 58.9504 76.96 57.9904 76.8C57.6061 76.7905 57.2216 76.8106 56.8404 76.86C55.8698 76.9255 54.8951 76.8954 53.9304 76.77C53.0031 76.5418 52.1376 76.1116 51.396 75.51C50.6544 74.9084 50.0549 74.1503 49.6404 73.29L45.2104 81ZM82.5604 81L78.1504 73.3L77.9104 73.64C77.2222 74.8851 76.1433 75.8692 74.8402 76.4403C73.5372 77.0114 72.0824 77.1378 70.7004 76.8C70.3938 76.7349 70.077 76.7349 69.7704 76.8C68.8304 76.98 68.5404 77.62 69.0204 78.44C70.3537 80.7533 71.6871 83.0633 73.0204 85.37C73.1504 85.61 73.3004 85.84 73.5104 86.18C74.1704 84.36 74.7604 82.68 75.3704 81.01C75.7204 80.07 76.1704 79.83 77.1704 80.01L82.5604 81Z" fill="#F48120"/>
<path d="M76.9403 59.0701C76.9383 61.6535 76.1702 64.1783 74.733 66.3252C73.2959 68.472 71.2543 70.1443 68.8666 71.1307C66.4789 72.1171 63.8522 72.3731 61.3189 71.8664C58.7857 71.3597 56.4596 70.1131 54.6349 68.2842C52.8102 66.4554 51.569 64.1264 51.0681 61.592C50.5672 59.0576 50.8293 56.4315 51.8212 54.046C52.813 51.6606 54.4901 49.6229 56.6402 48.1906C58.7903 46.7584 61.3169 45.9961 63.9003 46.0001C65.6168 45.9948 67.3173 46.3294 68.9037 46.9847C70.4902 47.6401 71.9311 48.6031 73.1434 49.8182C74.3558 51.0333 75.3155 52.4765 75.9671 54.0644C76.6188 55.6523 76.9496 57.3536 76.9403 59.0701ZM74.4503 59.0701C74.4503 56.9845 73.8327 54.9456 72.6754 53.2106C71.5181 51.4755 69.873 50.122 67.9475 49.3208C66.0219 48.5195 63.9023 48.3063 61.8558 48.7081C59.8093 49.11 57.9276 50.1088 56.448 51.5786C54.9684 53.0485 53.9572 54.9235 53.5418 56.9673C53.1265 59.0111 53.3257 61.1322 54.1142 63.0629C54.9027 64.9937 56.2453 66.6477 57.9727 67.8165C59.7 68.9852 61.7348 69.6162 63.8203 69.6301C66.6264 69.638 69.3212 68.533 71.3139 66.5572C73.3065 64.5815 74.4344 61.8962 74.4503 59.0901V59.0701Z" fill="#F48120"/>
<path d="M73.0002 56.8901C72.8183 57.2285 72.5967 57.544 72.3402 57.8301C71.3402 58.7101 70.4002 59.5501 69.4102 60.3701C69.2603 60.4664 69.1485 60.6118 69.0938 60.7814C69.0391 60.951 69.0449 61.1343 69.1102 61.3001C69.4402 62.5501 69.7002 63.8201 70.0102 65.0801C70.1148 65.3772 70.1205 65.7003 70.0264 66.001C69.9323 66.3017 69.7435 66.5638 69.4881 66.7483C69.2327 66.9328 68.9245 67.0298 68.6094 67.0247C68.2944 67.0196 67.9895 66.9127 67.7402 66.7201C66.6302 66.0401 65.5102 65.3901 64.4202 64.7201C64.2783 64.6065 64.102 64.5446 63.9202 64.5446C63.7384 64.5446 63.5621 64.6065 63.4202 64.7201C62.3502 65.4001 61.2502 66.0301 60.1702 66.7201C59.9199 66.9589 59.5933 67.1017 59.248 67.1235C58.9028 67.1453 58.5609 67.0445 58.2825 66.8391C58.0042 66.6336 57.8072 66.3365 57.7263 66.0001C57.6454 65.6638 57.6857 65.3096 57.8402 65.0001C58.1602 63.7701 58.3902 62.5201 58.7202 61.2901C58.782 61.1244 58.7849 60.9426 58.7285 60.775C58.672 60.6075 58.5596 60.4645 58.4102 60.3701C57.4102 59.5501 56.4902 58.7101 55.5202 57.8801C55.2452 57.7038 55.0362 57.4414 54.9258 57.1339C54.8155 56.8264 54.81 56.491 54.9102 56.1801C55.0208 55.8751 55.2261 55.6136 55.496 55.4337C55.7658 55.2538 56.0862 55.1649 56.4102 55.1801C57.6802 55.0801 58.9402 54.9501 60.2102 54.8801C60.387 54.8888 60.5616 54.8371 60.7051 54.7335C60.8487 54.63 60.9528 54.4806 61.0002 54.3101C61.4702 53.1201 62.0002 51.9601 62.4602 50.7901C62.5436 50.4737 62.7289 50.1936 62.9873 49.993C63.2458 49.7924 63.5631 49.6824 63.8902 49.6801C64.2174 49.6879 64.5333 49.8012 64.7909 50.003C65.0486 50.2047 65.2342 50.4843 65.3202 50.8001C65.7902 51.9201 66.3202 53.0301 66.7202 54.1701C66.7685 54.3788 66.8875 54.5645 67.0569 54.6957C67.2264 54.8269 67.436 54.8956 67.6502 54.8901C68.9202 54.9401 70.1802 55.0701 71.4502 55.2001C71.6666 55.1976 71.881 55.2408 72.0795 55.3268C72.2781 55.4127 72.4562 55.5396 72.6025 55.699C72.7487 55.8585 72.8597 56.047 72.9283 56.2522C72.9968 56.4574 73.0213 56.6747 73.0002 56.8901ZM67.0002 63.3601C66.7802 62.3601 66.6202 61.5801 66.4002 60.7901C66.3082 60.5056 66.3089 60.1992 66.4024 59.9152C66.4959 59.6312 66.6772 59.3843 66.9202 59.2101C67.5502 58.6801 68.1602 58.1401 68.9202 57.4801C67.9202 57.4001 67.2102 57.3201 66.4402 57.2801C66.0893 57.2843 65.7464 57.1745 65.4633 56.9671C65.1801 56.7597 64.972 56.4659 64.8702 56.1301C64.6102 55.3901 64.2602 54.6801 63.8702 53.8401C63.5502 54.6201 63.2202 55.2401 63.0202 55.9001C62.9119 56.3362 62.6501 56.7187 62.2829 56.9776C61.9156 57.2365 61.4674 57.3545 61.0202 57.3101C60.3502 57.3101 59.6802 57.4101 58.8502 57.4801C59.5802 58.1201 60.1302 58.6301 60.7202 59.1001C61.0159 59.2917 61.2375 59.5784 61.3483 59.9129C61.4592 60.2474 61.4528 60.6097 61.3302 60.9401C61.1102 61.6701 60.9802 62.4301 60.7702 63.3601C61.5002 62.9201 62.1202 62.6001 62.6802 62.2001C63.0044 61.9173 63.42 61.7615 63.8502 61.7615C64.2804 61.7615 64.696 61.9173 65.0202 62.2001C65.6102 62.6001 66.2302 62.9101 67.0002 63.3601Z" fill="#F48120"/>
</svg>
